{
    "results": [
        {
            "photo": "no-photo.jpg",
            "nidFront": "nid_front.jpg",
            "nidBack": "nid_back.jpg",
            "passportBiodata": "passport_biodata.jpg",
            "drivingFront": "driving_front.jpg",
            "drivingBack": "driving_back.jpg",
            "role": "user",
            "approvalStatus": "pending",
            "userStatus": true,
            "email": "ridoan.anik@leads-bd.com",
            "nickName": "Anik",
            "bcAccount": {
                "address": "0x831cC06E7dDF3b670B873E37a360F105dd641a1D",
                "privateKey": "0x24ffd211ae7762bdb1abe90a3163799e59c2ea6e1d19584cb61874f9cd74647f",
                "id": "606f4a4ee6d67e46b6e71ec4"
            },
            "id": "606f4a4ee6d67e46b6e71ec5"
        },
        {
            "photo": "5298e1f9-0eee-4539-8009-e946b5c9fa4d.png",
            "nidFront": "nid_front.jpg",
            "nidBack": "nid_back.jpg",
            "passportBiodata": "passport_biodata.jpg",
            "drivingFront": "driving_front.jpg",
            "drivingBack": "driving_back.jpg",
            "role": "user",
            "approvalStatus": "pending",
            "userStatus": true,
            "email": "mamun@sorashokai.com",
            "nickName": "Mamun",
            "bcAccount": {
                "address": "0x3a7cf109564c38a978FB7DD4320dbEa4D22255c0",
                "privateKey": "0xb50f72203b75bc419ecfc3191a4ea0c69b04afb65325bf57eb74c68594007115",
                "id": "60700f7c52de941d23b58f3b"
            },
            "id": "60700f7d52de941d23b58f3c"
        },
        {
            "photo": "no-photo.jpg",
            "nidFront": "nid_front.jpg",
            "nidBack": "nid_back.jpg",
            "passportBiodata": "passport_biodata.jpg",
            "drivingFront": "driving_front.jpg",
            "drivingBack": "driving_back.jpg",
            "role": "user",
            "approvalStatus": "pending",
            "userStatus": true,
            "email": "ritonjp@gmail.com",
            "nickName": "Riton",
            "bcAccount": {
                "address": "0x57F73644F0139Ba9872FF174E8A8d8955a3Ded57",
                "privateKey": "0xc29af59a85490a3c4aac7e27056bdac6684d0a48110209f451f3327c88247621",
                "id": "60719c02a2841822aeb081ee"
            },
            "id": "60719c02a2841822aeb081ef"
        },
        {
            "photo": "no-photo.jpg",
            "nidFront": "nid_front.jpg",
            "nidBack": "nid_back.jpg",
            "passportBiodata": "passport_biodata.jpg",
            "drivingFront": "driving_front.jpg",
            "drivingBack": "driving_back.jpg",
            "role": "user",
            "approvalStatus": "pending",
            "userStatus": true,
            "email": "riton_bd@outlook.com",
            "nickName": "Ashraf",
            "bcAccount": {
                "address": "0x0D4263BBCbaB98aBCb51Edc0CAaE5e66f589A7d1",
                "privateKey": "0x24d7e245a33e7fb8b468f5a9eacb7cc89dea5656356b73d93d2f87aced5c5655",
                "id": "6071ad42a2841822aeb081fe"
            },
            "id": "6071ad42a2841822aeb081ff"
        },
        {
            "photo": "c19eb5fe-98b8-4661-8b7e-af79d5f082b5.jpeg",
            "nidFront": "nid_front.jpg",
            "nidBack": "nid_back.jpg",
            "passportBiodata": "passport_biodata.jpg",
            "drivingFront": "a75182b2-209c-486b-b8e9-7893c69fd85d.jpg",
            "drivingBack": "a50df608-ade4-4a8f-822d-343bf8a7330b.jpg",
            "role": "user",
            "approvalStatus": "pending",
            "userStatus": true,
            "email": "kato@jhcpo.com",
            "nickName": "Abdqkato",
            "bcAccount": {
                "address": "0x100bC3De8a2D02C36406EB0F071e340610c21157",
                "privateKey": "0x72dca962b960c2678c5ad347a3fad4665fd40c464818747fb2f69ac286234a11",
                "id": "6071b634a2841822aeb08206"
            },
            "city": "tokyo",
            "dob": "1977-02-11T00:00:00.000Z",
            "firstName": "Abdul",
            "gender": "male",
            "lastName": "Kato",
            "middleName": "Qudir",
            "nationalId": "1212121212121",
            "nationality": "Japan",
            "phone": "09065290408",
            "spouseName": "",
            "state": "Edogawaku",
            "street": "1-5-4",
            "zipcode": "134-0015",
            "id": "6071b634a2841822aeb08207"
        },
        {
            "photo": "da11f09f-ae41-47be-8de2-ab16dc719881.jpg",
            "nidFront": "ec869a88-5659-4863-8c1f-a28ab446193b.jpg",
            "nidBack": "2ab719e3-493c-4474-8eff-76f0f66de7c2.jpg",
            "passportBiodata": "passport_biodata.jpg",
            "drivingFront": "driving_front.jpg",
            "drivingBack": "driving_back.jpg",
            "role": "user",
            "approvalStatus": "pending",
            "userStatus": true,
            "email": "badhon.alam32@gmail.com",
            "nickName": "Badhon",
            "bcAccount": {
                "address": "0x8397E88F3cd60de9840A2CD75FBd8130c0Eb05dc",
                "privateKey": "0x026572ea2e8ccb68fe2d718f8414b11e7655261105f1d0e8216a22a0ee486a0a",
                "id": "6072b72da2841822aeb08232"
            },
            "city": "dhaka",
            "dob": "1990-05-25T00:00:00.000Z",
            "firstName": "Badhon",
            "gender": "male",
            "lastName": "alam",
            "middleName": "",
            "nationalId": "1234567854123",
            "nationality": "Bangladesh",
            "phone": "01783558935",
            "spouseName": "",
            "state": "Bangladesh",
            "street": "House 16, Road 1(A), Sector 13, Uttara",
            "zipcode": "1230",
            "id": "6072b72da2841822aeb08233"
        },
        {
            "photo": "no-photo.jpg",
            "nidFront": "nid_front.jpg",
            "nidBack": "nid_back.jpg",
            "passportBiodata": "passport_biodata.jpg",
            "drivingFront": "driving_front.jpg",
            "drivingBack": "driving_back.jpg",
            "role": "user",
            "approvalStatus": "pending",
            "userStatus": true,
            "email": "trinova2015@gmail.com",
            "nickName": "Bappy",
            "bcAccount": {
                "address": "0x35CDC0042f215483B824D1F1A3E7d6c8559692c4",
                "privateKey": "0x05ce5d2e0f162340debfa694c52cdf1a62d5373ec28280c0dea6510590d06131",
                "id": "60731628a2841822aeb08244"
            },
            "id": "60731628a2841822aeb08245"
        },
        {
            "photo": "8ddc9abd-d929-4094-90e9-4c2b6b1ef6cd.jpg",
            "nidFront": "8aa76d2c-7faf-42be-a147-5facc6005d9b.jpg",
            "nidBack": "68ec9da4-afbc-4a26-8c9c-39f51ab0e577.jpg",
            "passportBiodata": "passport_biodata.jpg",
            "drivingFront": "driving_front.jpg",
            "drivingBack": "driving_back.jpg",
            "role": "user",
            "approvalStatus": "pending",
            "userStatus": true,
            "email": "badhon.alam303@gmail.com",
            "nickName": "Parisa",
            "bcAccount": {
                "address": "0x1cc9f812D56466979BF84586fE7DBB04D7cd858C",
                "privateKey": "0x76931745d3f9b7ffd9366c20237aee9f65bf6c1b108879366377ec5e72ba3d01",
                "id": "60744bc573ce0e51b906c387"
            },
            "city": "Dhaka",
            "dob": "2021-04-01T00:00:00.000Z",
            "firstName": "Minul",
            "gender": "male",
            "lastName": "Alam",
            "middleName": "",
            "nationalId": "",
            "nationality": "United States",
            "phone": "01844051974",
            "spouseName": "",
            "state": "Dhaka",
            "street": "115, Kazi Nazrul",
            "zipcode": "1000",
            "id": "60744bc673ce0e51b906c388"
        },
        {
            "photo": "no-photo.jpg",
            "nidFront": "nid_front.jpg",
            "nidBack": "nid_back.jpg",
            "passportBiodata": "passport_biodata.jpg",
            "drivingFront": "driving_front.jpg",
            "drivingBack": "driving_back.jpg",
            "role": "user",
            "approvalStatus": "pending",
            "userStatus": true,
            "email": "asia.asset.club@gmail.com",
            "nickName": "Turquoise",
            "bcAccount": {
                "address": "0xA1F63156b1e821d60027D6622356c46479B4cF9A",
                "privateKey": "0x221f83076910f72fb0c9f4f6d49e00dedea03b8e16ab20363b0999752d235c28",
                "id": "60769dd536e31383b5535935"
            },
            "id": "60769dd536e31383b5535936"
        },
        {
            "photo": "no-photo.jpg",
            "nidFront": "nid_front.jpg",
            "nidBack": "nid_back.jpg",
            "passportBiodata": "passport_biodata.jpg",
            "drivingFront": "driving_front.jpg",
            "drivingBack": "driving_back.jpg",
            "role": "user",
            "approvalStatus": "pending",
            "userStatus": true,
            "email": "mmm@mmm.com",
            "nickName": "Mmm",
            "bcAccount": {
                "address": "0x9a7704c8E9dBB4246B8f7bfA0D55c113B6AbB203",
                "privateKey": "0x2d1d0e6062ce189d4297f55c88291701cb8fa169cf089ad3abd662e12d57747d",
                "id": "6076a25036e31383b5535939"
            },
            "id": "6076a25036e31383b553593a"
        }
    ],
    "page": 1,
    "limit": 10,
    "totalPages": 7,
    "totalResults": 62
}